{
  "name": "Api Doc",
  "version": "0.1.1",
  "description": "",
  "sampleUrl": false,
  "apidoc": "0.2.0",
  "generator": {
    "name": "apidoc",
    "time": "2016-08-29T16:18:29.285Z",
    "url": "http://apidocjs.com",
    "version": "0.16.1"
  }
}
